  0
SECTION
  2
BLOCKS
  0
ENDSEC
  0
SECTION
  2
ENTITIES
  0
LINE
  8
0
 10
459.5
 20
890
 11
0
 21
890
  0
LINE
  8
0
 10
0
 20
890
 11
0
 21
610.5
  0
LINE
  8
0
 10
0
 20
610.5
 11
459.5
 21
610.5
  0
LINE
  8
0
 10
459.5
 20
610.5
 11
459.5
 21
890
  0
LINE
  8
0
 10
280
 20
541.75
 11
290
 21
541.75
  0
LINE
  8
0
 10
290
 20
541.75
 11
290
 21
548
  0
LINE
  8
0
 10
290
 20
548
 11
280
 21
548
  0
LINE
  8
0
 10
280
 20
548
 11
280
 21
554.25
  0
LINE
  8
0
 10
280
 20
554.25
 11
290
 21
554.25
  0
LINE
  8
0
 10
290
 20
554.25
 11
290
 21
560.5
  0
LINE
  8
0
 10
290
 20
560.5
 11
280
 21
560.5
  0
LINE
  8
0
 10
280
 20
560.5
 11
280
 21
566.75
  0
LINE
  8
0
 10
280
 20
566.75
 11
290
 21
566.75
  0
LINE
  8
0
 10
290
 20
566.75
 11
290
 21
573
  0
LINE
  8
0
 10
290
 20
573
 11
280
 21
573
  0
LINE
  8
0
 10
280
 20
573
 11
280
 21
579.25
  0
LINE
  8
0
 10
280
 20
579.25
 11
290
 21
579.25
  0
LINE
  8
0
 10
290
 20
579.25
 11
290
 21
585.5
  0
LINE
  8
0
 10
290
 20
585.5
 11
0
 21
585.5
  0
LINE
  8
0
 10
0
 20
585.5
 11
0
 21
579.25
  0
LINE
  8
0
 10
0
 20
579.25
 11
-10
 21
579.25
  0
LINE
  8
0
 10
-10
 20
579.25
 11
-10
 21
573
  0
LINE
  8
0
 10
-10
 20
573
 11
0
 21
573
  0
LINE
  8
0
 10
0
 20
573
 11
0
 21
566.75
  0
LINE
  8
0
 10
0
 20
566.75
 11
-10
 21
566.75
  0
LINE
  8
0
 10
-10
 20
566.75
 11
-10
 21
560.5
  0
LINE
  8
0
 10
-10
 20
560.5
 11
0
 21
560.5
  0
LINE
  8
0
 10
0
 20
560.5
 11
0
 21
554.25
  0
LINE
  8
0
 10
0
 20
554.25
 11
-10
 21
554.25
  0
LINE
  8
0
 10
-10
 20
554.25
 11
-10
 21
548
  0
LINE
  8
0
 10
-10
 20
548
 11
0
 21
548
  0
LINE
  8
0
 10
0
 20
548
 11
0
 21
541.75
  0
LINE
  8
0
 10
0
 20
541.75
 11
-10
 21
541.75
  0
LINE
  8
0
 10
-10
 20
541.75
 11
-10
 21
535.5
  0
LINE
  8
0
 10
-10
 20
535.5
 11
280
 21
535.5
  0
LINE
  8
0
 10
280
 20
535.5
 11
280
 21
541.75
  0
LINE
  8
0
 10
100
 20
555.1
 11
98.9547
 21
555.155
  0
LINE
  8
0
 10
98.9547
 20
555.155
 11
97.9209
 21
555.319
  0
LINE
  8
0
 10
97.9209
 20
555.319
 11
96.9098
 21
555.589
  0
LINE
  8
0
 10
96.9098
 20
555.589
 11
95.9326
 21
555.965
  0
LINE
  8
0
 10
95.9326
 20
555.965
 11
95
 21
556.44
  0
LINE
  8
0
 10
95
 20
556.44
 11
94.1221
 21
557.01
  0
LINE
  8
0
 10
94.1221
 20
557.01
 11
93.3087
 21
557.669
  0
LINE
  8
0
 10
93.3087
 20
557.669
 11
92.5685
 21
558.409
  0
LINE
  8
0
 10
92.5685
 20
558.409
 11
91.9098
 21
559.222
  0
LINE
  8
0
 10
91.9098
 20
559.222
 11
91.3397
 21
560.1
  0
LINE
  8
0
 10
91.3397
 20
560.1
 11
90.8645
 21
561.033
  0
LINE
  8
0
 10
90.8645
 20
561.033
 11
90.4894
 21
562.01
  0
LINE
  8
0
 10
90.4894
 20
562.01
 11
90.2185
 21
563.021
  0
LINE
  8
0
 10
90.2185
 20
563.021
 11
90.0548
 21
564.055
  0
LINE
  8
0
 10
90.0548
 20
564.055
 11
90
 21
565.1
  0
LINE
  8
0
 10
90
 20
565.1
 11
90.0548
 21
566.145
  0
LINE
  8
0
 10
90.0548
 20
566.145
 11
90.2185
 21
567.179
  0
LINE
  8
0
 10
90.2185
 20
567.179
 11
90.4894
 21
568.19
  0
LINE
  8
0
 10
90.4894
 20
568.19
 11
90.8645
 21
569.167
  0
LINE
  8
0
 10
90.8645
 20
569.167
 11
91.3397
 21
570.1
  0
LINE
  8
0
 10
91.3397
 20
570.1
 11
91.9098
 21
570.978
  0
LINE
  8
0
 10
91.9098
 20
570.978
 11
92.5685
 21
571.791
  0
LINE
  8
0
 10
92.5685
 20
571.791
 11
93.3087
 21
572.531
  0
LINE
  8
0
 10
93.3087
 20
572.531
 11
94.1221
 21
573.19
  0
LINE
  8
0
 10
94.1221
 20
573.19
 11
95
 21
573.76
  0
LINE
  8
0
 10
95
 20
573.76
 11
95.9326
 21
574.235
  0
LINE
  8
0
 10
95.9326
 20
574.235
 11
96.9098
 21
574.611
  0
LINE
  8
0
 10
96.9098
 20
574.611
 11
97.9209
 21
574.881
  0
LINE
  8
0
 10
97.9209
 20
574.881
 11
98.9547
 21
575.045
  0
LINE
  8
0
 10
98.9547
 20
575.045
 11
100
 21
575.1
  0
LINE
  8
0
 10
100
 20
575.1
 11
180
 21
575.1
  0
LINE
  8
0
 10
180
 20
575.1
 11
181.045
 21
575.045
  0
LINE
  8
0
 10
181.045
 20
575.045
 11
182.079
 21
574.881
  0
LINE
  8
0
 10
182.079
 20
574.881
 11
183.09
 21
574.611
  0
LINE
  8
0
 10
183.09
 20
574.611
 11
184.067
 21
574.235
  0
LINE
  8
0
 10
184.067
 20
574.235
 11
185
 21
573.76
  0
LINE
  8
0
 10
185
 20
573.76
 11
185.878
 21
573.19
  0
LINE
  8
0
 10
185.878
 20
573.19
 11
186.691
 21
572.531
  0
LINE
  8
0
 10
186.691
 20
572.531
 11
187.431
 21
571.791
  0
LINE
  8
0
 10
187.431
 20
571.791
 11
188.09
 21
570.978
  0
LINE
  8
0
 10
188.09
 20
570.978
 11
188.66
 21
570.1
  0
LINE
  8
0
 10
188.66
 20
570.1
 11
189.135
 21
569.167
  0
LINE
  8
0
 10
189.135
 20
569.167
 11
189.511
 21
568.19
  0
LINE
  8
0
 10
189.511
 20
568.19
 11
189.781
 21
567.179
  0
LINE
  8
0
 10
189.781
 20
567.179
 11
189.945
 21
566.145
  0
LINE
  8
0
 10
189.945
 20
566.145
 11
190
 21
565.1
  0
LINE
  8
0
 10
190
 20
565.1
 11
189.945
 21
564.055
  0
LINE
  8
0
 10
189.945
 20
564.055
 11
189.781
 21
563.021
  0
LINE
  8
0
 10
189.781
 20
563.021
 11
189.511
 21
562.01
  0
LINE
  8
0
 10
189.511
 20
562.01
 11
189.135
 21
561.033
  0
LINE
  8
0
 10
189.135
 20
561.033
 11
188.66
 21
560.1
  0
LINE
  8
0
 10
188.66
 20
560.1
 11
188.09
 21
559.222
  0
LINE
  8
0
 10
188.09
 20
559.222
 11
187.431
 21
558.409
  0
LINE
  8
0
 10
187.431
 20
558.409
 11
186.691
 21
557.669
  0
LINE
  8
0
 10
186.691
 20
557.669
 11
185.878
 21
557.01
  0
LINE
  8
0
 10
185.878
 20
557.01
 11
185
 21
556.44
  0
LINE
  8
0
 10
185
 20
556.44
 11
184.067
 21
555.965
  0
LINE
  8
0
 10
184.067
 20
555.965
 11
183.09
 21
555.589
  0
LINE
  8
0
 10
183.09
 20
555.589
 11
182.079
 21
555.319
  0
LINE
  8
0
 10
182.079
 20
555.319
 11
181.045
 21
555.155
  0
LINE
  8
0
 10
181.045
 20
555.155
 11
180
 21
555.1
  0
LINE
  8
0
 10
180
 20
555.1
 11
100
 21
555.1
  0
LINE
  8
0
 10
62
 20
540.5
 11
62
 21
544.7
  0
LINE
  8
0
 10
62
 20
544.7
 11
218
 21
544.7
  0
LINE
  8
0
 10
218
 20
544.7
 11
218
 21
540.5
  0
LINE
  8
0
 10
218
 20
540.5
 11
62
 21
540.5
  0
LINE
  8
0
 10
280
 20
466.75
 11
290
 21
466.75
  0
LINE
  8
0
 10
290
 20
466.75
 11
290
 21
473
  0
LINE
  8
0
 10
290
 20
473
 11
280
 21
473
  0
LINE
  8
0
 10
280
 20
473
 11
280
 21
479.25
  0
LINE
  8
0
 10
280
 20
479.25
 11
290
 21
479.25
  0
LINE
  8
0
 10
290
 20
479.25
 11
290
 21
485.5
  0
LINE
  8
0
 10
290
 20
485.5
 11
280
 21
485.5
  0
LINE
  8
0
 10
280
 20
485.5
 11
280
 21
491.75
  0
LINE
  8
0
 10
280
 20
491.75
 11
290
 21
491.75
  0
LINE
  8
0
 10
290
 20
491.75
 11
290
 21
498
  0
LINE
  8
0
 10
290
 20
498
 11
280
 21
498
  0
LINE
  8
0
 10
280
 20
498
 11
280
 21
504.25
  0
LINE
  8
0
 10
280
 20
504.25
 11
290
 21
504.25
  0
LINE
  8
0
 10
290
 20
504.25
 11
290
 21
510.5
  0
LINE
  8
0
 10
290
 20
510.5
 11
0
 21
510.5
  0
LINE
  8
0
 10
0
 20
510.5
 11
0
 21
504.25
  0
LINE
  8
0
 10
0
 20
504.25
 11
-10
 21
504.25
  0
LINE
  8
0
 10
-10
 20
504.25
 11
-10
 21
498
  0
LINE
  8
0
 10
-10
 20
498
 11
0
 21
498
  0
LINE
  8
0
 10
0
 20
498
 11
0
 21
491.75
  0
LINE
  8
0
 10
0
 20
491.75
 11
-10
 21
491.75
  0
LINE
  8
0
 10
-10
 20
491.75
 11
-10
 21
485.5
  0
LINE
  8
0
 10
-10
 20
485.5
 11
0
 21
485.5
  0
LINE
  8
0
 10
0
 20
485.5
 11
0
 21
479.25
  0
LINE
  8
0
 10
0
 20
479.25
 11
-10
 21
479.25
  0
LINE
  8
0
 10
-10
 20
479.25
 11
-10
 21
473
  0
LINE
  8
0
 10
-10
 20
473
 11
0
 21
473
  0
LINE
  8
0
 10
0
 20
473
 11
0
 21
466.75
  0
LINE
  8
0
 10
0
 20
466.75
 11
-10
 21
466.75
  0
LINE
  8
0
 10
-10
 20
466.75
 11
-10
 21
460.5
  0
LINE
  8
0
 10
-10
 20
460.5
 11
280
 21
460.5
  0
LINE
  8
0
 10
280
 20
460.5
 11
280
 21
466.75
  0
LINE
  8
0
 10
100
 20
480.1
 11
98.9547
 21
480.155
  0
LINE
  8
0
 10
98.9547
 20
480.155
 11
97.9209
 21
480.319
  0
LINE
  8
0
 10
97.9209
 20
480.319
 11
96.9098
 21
480.589
  0
LINE
  8
0
 10
96.9098
 20
480.589
 11
95.9326
 21
480.965
  0
LINE
  8
0
 10
95.9326
 20
480.965
 11
95
 21
481.44
  0
LINE
  8
0
 10
95
 20
481.44
 11
94.1221
 21
482.01
  0
LINE
  8
0
 10
94.1221
 20
482.01
 11
93.3087
 21
482.669
  0
LINE
  8
0
 10
93.3087
 20
482.669
 11
92.5685
 21
483.409
  0
LINE
  8
0
 10
92.5685
 20
483.409
 11
91.9098
 21
484.222
  0
LINE
  8
0
 10
91.9098
 20
484.222
 11
91.3397
 21
485.1
  0
LINE
  8
0
 10
91.3397
 20
485.1
 11
90.8645
 21
486.033
  0
LINE
  8
0
 10
90.8645
 20
486.033
 11
90.4894
 21
487.01
  0
LINE
  8
0
 10
90.4894
 20
487.01
 11
90.2185
 21
488.021
  0
LINE
  8
0
 10
90.2185
 20
488.021
 11
90.0548
 21
489.055
  0
LINE
  8
0
 10
90.0548
 20
489.055
 11
90
 21
490.1
  0
LINE
  8
0
 10
90
 20
490.1
 11
90.0548
 21
491.145
  0
LINE
  8
0
 10
90.0548
 20
491.145
 11
90.2185
 21
492.179
  0
LINE
  8
0
 10
90.2185
 20
492.179
 11
90.4894
 21
493.19
  0
LINE
  8
0
 10
90.4894
 20
493.19
 11
90.8645
 21
494.167
  0
LINE
  8
0
 10
90.8645
 20
494.167
 11
91.3397
 21
495.1
  0
LINE
  8
0
 10
91.3397
 20
495.1
 11
91.9098
 21
495.978
  0
LINE
  8
0
 10
91.9098
 20
495.978
 11
92.5685
 21
496.791
  0
LINE
  8
0
 10
92.5685
 20
496.791
 11
93.3087
 21
497.531
  0
LINE
  8
0
 10
93.3087
 20
497.531
 11
94.1221
 21
498.19
  0
LINE
  8
0
 10
94.1221
 20
498.19
 11
95
 21
498.76
  0
LINE
  8
0
 10
95
 20
498.76
 11
95.9326
 21
499.235
  0
LINE
  8
0
 10
95.9326
 20
499.235
 11
96.9098
 21
499.611
  0
LINE
  8
0
 10
96.9098
 20
499.611
 11
97.9209
 21
499.881
  0
LINE
  8
0
 10
97.9209
 20
499.881
 11
98.9547
 21
500.045
  0
LINE
  8
0
 10
98.9547
 20
500.045
 11
100
 21
500.1
  0
LINE
  8
0
 10
100
 20
500.1
 11
180
 21
500.1
  0
LINE
  8
0
 10
180
 20
500.1
 11
181.045
 21
500.045
  0
LINE
  8
0
 10
181.045
 20
500.045
 11
182.079
 21
499.881
  0
LINE
  8
0
 10
182.079
 20
499.881
 11
183.09
 21
499.611
  0
LINE
  8
0
 10
183.09
 20
499.611
 11
184.067
 21
499.235
  0
LINE
  8
0
 10
184.067
 20
499.235
 11
185
 21
498.76
  0
LINE
  8
0
 10
185
 20
498.76
 11
185.878
 21
498.19
  0
LINE
  8
0
 10
185.878
 20
498.19
 11
186.691
 21
497.531
  0
LINE
  8
0
 10
186.691
 20
497.531
 11
187.431
 21
496.791
  0
LINE
  8
0
 10
187.431
 20
496.791
 11
188.09
 21
495.978
  0
LINE
  8
0
 10
188.09
 20
495.978
 11
188.66
 21
495.1
  0
LINE
  8
0
 10
188.66
 20
495.1
 11
189.135
 21
494.167
  0
LINE
  8
0
 10
189.135
 20
494.167
 11
189.511
 21
493.19
  0
LINE
  8
0
 10
189.511
 20
493.19
 11
189.781
 21
492.179
  0
LINE
  8
0
 10
189.781
 20
492.179
 11
189.945
 21
491.145
  0
LINE
  8
0
 10
189.945
 20
491.145
 11
190
 21
490.1
  0
LINE
  8
0
 10
190
 20
490.1
 11
189.945
 21
489.055
  0
LINE
  8
0
 10
189.945
 20
489.055
 11
189.781
 21
488.021
  0
LINE
  8
0
 10
189.781
 20
488.021
 11
189.511
 21
487.01
  0
LINE
  8
0
 10
189.511
 20
487.01
 11
189.135
 21
486.033
  0
LINE
  8
0
 10
189.135
 20
486.033
 11
188.66
 21
485.1
  0
LINE
  8
0
 10
188.66
 20
485.1
 11
188.09
 21
484.222
  0
LINE
  8
0
 10
188.09
 20
484.222
 11
187.431
 21
483.409
  0
LINE
  8
0
 10
187.431
 20
483.409
 11
186.691
 21
482.669
  0
LINE
  8
0
 10
186.691
 20
482.669
 11
185.878
 21
482.01
  0
LINE
  8
0
 10
185.878
 20
482.01
 11
185
 21
481.44
  0
LINE
  8
0
 10
185
 20
481.44
 11
184.067
 21
480.965
  0
LINE
  8
0
 10
184.067
 20
480.965
 11
183.09
 21
480.589
  0
LINE
  8
0
 10
183.09
 20
480.589
 11
182.079
 21
480.319
  0
LINE
  8
0
 10
182.079
 20
480.319
 11
181.045
 21
480.155
  0
LINE
  8
0
 10
181.045
 20
480.155
 11
180
 21
480.1
  0
LINE
  8
0
 10
180
 20
480.1
 11
100
 21
480.1
  0
LINE
  8
0
 10
62
 20
465.5
 11
62
 21
469.7
  0
LINE
  8
0
 10
62
 20
469.7
 11
218
 21
469.7
  0
LINE
  8
0
 10
218
 20
469.7
 11
218
 21
465.5
  0
LINE
  8
0
 10
218
 20
465.5
 11
62
 21
465.5
  0
LINE
  8
0
 10
460
 20
391.75
 11
470
 21
391.75
  0
LINE
  8
0
 10
470
 20
391.75
 11
470
 21
398
  0
LINE
  8
0
 10
470
 20
398
 11
460
 21
398
  0
LINE
  8
0
 10
460
 20
398
 11
460
 21
404.25
  0
LINE
  8
0
 10
460
 20
404.25
 11
470
 21
404.25
  0
LINE
  8
0
 10
470
 20
404.25
 11
470
 21
410.5
  0
LINE
  8
0
 10
470
 20
410.5
 11
460
 21
410.5
  0
LINE
  8
0
 10
460
 20
410.5
 11
460
 21
416.75
  0
LINE
  8
0
 10
460
 20
416.75
 11
470
 21
416.75
  0
LINE
  8
0
 10
470
 20
416.75
 11
470
 21
423
  0
LINE
  8
0
 10
470
 20
423
 11
460
 21
423
  0
LINE
  8
0
 10
460
 20
423
 11
460
 21
429.25
  0
LINE
  8
0
 10
460
 20
429.25
 11
470
 21
429.25
  0
LINE
  8
0
 10
470
 20
429.25
 11
470
 21
435.5
  0
LINE
  8
0
 10
470
 20
435.5
 11
0
 21
435.5
  0
LINE
  8
0
 10
0
 20
435.5
 11
0
 21
429.25
  0
LINE
  8
0
 10
0
 20
429.25
 11
-10
 21
429.25
  0
LINE
  8
0
 10
-10
 20
429.25
 11
-10
 21
423
  0
LINE
  8
0
 10
-10
 20
423
 11
0
 21
423
  0
LINE
  8
0
 10
0
 20
423
 11
0
 21
416.75
  0
LINE
  8
0
 10
0
 20
416.75
 11
-10
 21
416.75
  0
LINE
  8
0
 10
-10
 20
416.75
 11
-10
 21
410.5
  0
LINE
  8
0
 10
-10
 20
410.5
 11
0
 21
410.5
  0
LINE
  8
0
 10
0
 20
410.5
 11
0
 21
404.25
  0
LINE
  8
0
 10
0
 20
404.25
 11
-10
 21
404.25
  0
LINE
  8
0
 10
-10
 20
404.25
 11
-10
 21
398
  0
LINE
  8
0
 10
-10
 20
398
 11
0
 21
398
  0
LINE
  8
0
 10
0
 20
398
 11
0
 21
391.75
  0
LINE
  8
0
 10
0
 20
391.75
 11
-10
 21
391.75
  0
LINE
  8
0
 10
-10
 20
391.75
 11
-10
 21
385.5
  0
LINE
  8
0
 10
-10
 20
385.5
 11
460
 21
385.5
  0
LINE
  8
0
 10
460
 20
385.5
 11
460
 21
391.75
  0
LINE
  8
0
 10
266
 20
390.5
 11
266
 21
394.7
  0
LINE
  8
0
 10
266
 20
394.7
 11
398
 21
394.7
  0
LINE
  8
0
 10
398
 20
394.7
 11
398
 21
390.5
  0
LINE
  8
0
 10
398
 20
390.5
 11
266
 21
390.5
  0
LINE
  8
0
 10
62
 20
390.5
 11
62
 21
394.7
  0
LINE
  8
0
 10
62
 20
394.7
 11
194
 21
394.7
  0
LINE
  8
0
 10
194
 20
394.7
 11
194
 21
390.5
  0
LINE
  8
0
 10
194
 20
390.5
 11
62
 21
390.5
  0
LINE
  8
0
 10
460
 20
316.75
 11
470
 21
316.75
  0
LINE
  8
0
 10
470
 20
316.75
 11
470
 21
323
  0
LINE
  8
0
 10
470
 20
323
 11
460
 21
323
  0
LINE
  8
0
 10
460
 20
323
 11
460
 21
329.25
  0
LINE
  8
0
 10
460
 20
329.25
 11
470
 21
329.25
  0
LINE
  8
0
 10
470
 20
329.25
 11
470
 21
335.5
  0
LINE
  8
0
 10
470
 20
335.5
 11
460
 21
335.5
  0
LINE
  8
0
 10
460
 20
335.5
 11
460
 21
341.75
  0
LINE
  8
0
 10
460
 20
341.75
 11
470
 21
341.75
  0
LINE
  8
0
 10
470
 20
341.75
 11
470
 21
348
  0
LINE
  8
0
 10
470
 20
348
 11
460
 21
348
  0
LINE
  8
0
 10
460
 20
348
 11
460
 21
354.25
  0
LINE
  8
0
 10
460
 20
354.25
 11
470
 21
354.25
  0
LINE
  8
0
 10
470
 20
354.25
 11
470
 21
360.5
  0
LINE
  8
0
 10
470
 20
360.5
 11
0
 21
360.5
  0
LINE
  8
0
 10
0
 20
360.5
 11
0
 21
354.25
  0
LINE
  8
0
 10
0
 20
354.25
 11
-10
 21
354.25
  0
LINE
  8
0
 10
-10
 20
354.25
 11
-10
 21
348
  0
LINE
  8
0
 10
-10
 20
348
 11
0
 21
348
  0
LINE
  8
0
 10
0
 20
348
 11
0
 21
341.75
  0
LINE
  8
0
 10
0
 20
341.75
 11
-10
 21
341.75
  0
LINE
  8
0
 10
-10
 20
341.75
 11
-10
 21
335.5
  0
LINE
  8
0
 10
-10
 20
335.5
 11
0
 21
335.5
  0
LINE
  8
0
 10
0
 20
335.5
 11
0
 21
329.25
  0
LINE
  8
0
 10
0
 20
329.25
 11
-10
 21
329.25
  0
LINE
  8
0
 10
-10
 20
329.25
 11
-10
 21
323
  0
LINE
  8
0
 10
-10
 20
323
 11
0
 21
323
  0
LINE
  8
0
 10
0
 20
323
 11
0
 21
316.75
  0
LINE
  8
0
 10
0
 20
316.75
 11
-10
 21
316.75
  0
LINE
  8
0
 10
-10
 20
316.75
 11
-10
 21
310.5
  0
LINE
  8
0
 10
-10
 20
310.5
 11
460
 21
310.5
  0
LINE
  8
0
 10
460
 20
310.5
 11
460
 21
316.75
  0
LINE
  8
0
 10
266
 20
315.5
 11
266
 21
319.7
  0
LINE
  8
0
 10
266
 20
319.7
 11
398
 21
319.7
  0
LINE
  8
0
 10
398
 20
319.7
 11
398
 21
315.5
  0
LINE
  8
0
 10
398
 20
315.5
 11
266
 21
315.5
  0
LINE
  8
0
 10
62
 20
315.5
 11
62
 21
319.7
  0
LINE
  8
0
 10
62
 20
319.7
 11
194
 21
319.7
  0
LINE
  8
0
 10
194
 20
319.7
 11
194
 21
315.5
  0
LINE
  8
0
 10
194
 20
315.5
 11
62
 21
315.5
  0
LINE
  8
0
 10
276
 20
300
 11
276
 21
290
  0
LINE
  8
0
 10
276
 20
290
 11
204
 21
290
  0
LINE
  8
0
 10
204
 20
290
 11
204
 21
300
  0
LINE
  8
0
 10
204
 20
300
 11
72
 21
300
  0
LINE
  8
0
 10
72
 20
300
 11
72
 21
290
  0
LINE
  8
0
 10
72
 20
290
 11
10
 21
290
  0
LINE
  8
0
 10
10
 20
290
 11
10
 21
228
  0
LINE
  8
0
 10
10
 20
228
 11
0
 21
228
  0
LINE
  8
0
 10
0
 20
228
 11
0
 21
72
  0
LINE
  8
0
 10
0
 20
72
 11
10
 21
72
  0
LINE
  8
0
 10
10
 20
72
 11
10
 21
10
  0
LINE
  8
0
 10
10
 20
10
 11
72
 21
10
  0
LINE
  8
0
 10
72
 20
10
 11
72
 21
0
  0
LINE
  8
0
 10
72
 20
0
 11
204
 21
0
  0
LINE
  8
0
 10
204
 20
0
 11
204
 21
10
  0
LINE
  8
0
 10
204
 20
10
 11
276
 21
10
  0
LINE
  8
0
 10
276
 20
10
 11
276
 21
0
  0
LINE
  8
0
 10
276
 20
0
 11
408
 21
0
  0
LINE
  8
0
 10
408
 20
0
 11
408
 21
10
  0
LINE
  8
0
 10
408
 20
10
 11
470
 21
10
  0
LINE
  8
0
 10
470
 20
10
 11
470
 21
72
  0
LINE
  8
0
 10
470
 20
72
 11
480
 21
72
  0
LINE
  8
0
 10
480
 20
72
 11
480
 21
228
  0
LINE
  8
0
 10
480
 20
228
 11
470
 21
228
  0
LINE
  8
0
 10
470
 20
228
 11
470
 21
290
  0
LINE
  8
0
 10
470
 20
290
 11
408
 21
290
  0
LINE
  8
0
 10
408
 20
290
 11
408
 21
300
  0
LINE
  8
0
 10
408
 20
300
 11
276
 21
300
  0
ENDSEC
  0
SECTION
  2
OBJECTS
  0
DICTIONARY
  0
ENDSEC
  0
EOF
